C:\Users\adven\source\repos\ss-client\src\main\java\org\ss\engine\Window.java
C:\Users\adven\source\repos\ss-client\src\main\java\org\ss\engine\IGameLogic.java
C:\Users\adven\source\repos\ss-client\src\main\java\org\ss\game\Main.java
C:\Users\adven\source\repos\ss-client\src\main\java\org\ss\game\DummyGame.java
C:\Users\adven\source\repos\ss-client\src\main\java\org\ss\engine\Timer.java
C:\Users\adven\source\repos\ss-client\src\main\java\org\ss\game\Renderer.java
C:\Users\adven\source\repos\ss-client\src\main\java\org\ss\engine\GameEngine.java
